%YAML 1.1
%TAG !u! tag:unity3d.com,2011:
--- !u!1001 &1660256539391036162
PrefabInstance:
  m_ObjectHideFlags: 0
  serializedVersion: 2
  m_Modification:
    m_TransformParent: {fileID: 0}
    m_Modifications:
    - target: {fileID: 875153445067869313, guid: a6e38f9dfb0a82746a042e3fa54df03a,
        type: 3}
      propertyPath: tecla
      value: 103
      objectReference: {fileID: 0}
    - target: {fileID: 875153445067869313, guid: a6e38f9dfb0a82746a042e3fa54df03a,
        type: 3}
      propertyPath: generador
      value: 
      objectReference: {fileID: 8434542604946765254, guid: 14cb80ea502086642965d91ccc1bcf68,
        type: 3}
    - target: {fileID: 875153445067869313, guid: a6e38f9dfb0a82746a042e3fa54df03a,
        type: 3}
      propertyPath: createMode
      value: 0
      objectReference: {fileID: 0}
    - target: {fileID: 875153445067869314, guid: a6e38f9dfb0a82746a042e3fa54df03a,
        type: 3}
      propertyPath: m_RootOrder
      value: 0
      objectReference: {fileID: 0}
    - target: {fileID: 875153445067869314, guid: a6e38f9dfb0a82746a042e3fa54df03a,
        type: 3}
      propertyPath: m_LocalPosition.x
      value: 4
      objectReference: {fileID: 0}
    - target: {fileID: 875153445067869314, guid: a6e38f9dfb0a82746a042e3fa54df03a,
        type: 3}
      propertyPath: m_LocalPosition.y
      value: 4
      objectReference: {fileID: 0}
    - target: {fileID: 875153445067869314, guid: a6e38f9dfb0a82746a042e3fa54df03a,
        type: 3}
      propertyPath: m_LocalPosition.z
      value: 5
      objectReference: {fileID: 0}
    - target: {fileID: 875153445067869314, guid: a6e38f9dfb0a82746a042e3fa54df03a,
        type: 3}
      propertyPath: m_LocalRotation.w
      value: 1
      objectReference: {fileID: 0}
    - target: {fileID: 875153445067869314, guid: a6e38f9dfb0a82746a042e3fa54df03a,
        type: 3}
      propertyPath: m_LocalRotation.x
      value: -0
      objectReference: {fileID: 0}
    - target: {fileID: 875153445067869314, guid: a6e38f9dfb0a82746a042e3fa54df03a,
        type: 3}
      propertyPath: m_LocalRotation.y
      value: -0
      objectReference: {fileID: 0}
    - target: {fileID: 875153445067869314, guid: a6e38f9dfb0a82746a042e3fa54df03a,
        type: 3}
      propertyPath: m_LocalRotation.z
      value: -0
      objectReference: {fileID: 0}
    - target: {fileID: 875153445067869314, guid: a6e38f9dfb0a82746a042e3fa54df03a,
        type: 3}
      propertyPath: m_LocalEulerAnglesHint.x
      value: 0
      objectReference: {fileID: 0}
    - target: {fileID: 875153445067869314, guid: a6e38f9dfb0a82746a042e3fa54df03a,
        type: 3}
      propertyPath: m_LocalEulerAnglesHint.y
      value: 0
      objectReference: {fileID: 0}
    - target: {fileID: 875153445067869314, guid: a6e38f9dfb0a82746a042e3fa54df03a,
        type: 3}
      propertyPath: m_LocalEulerAnglesHint.z
      value: 0
      objectReference: {fileID: 0}
    - target: {fileID: 875153445067869316, guid: a6e38f9dfb0a82746a042e3fa54df03a,
        type: 3}
      propertyPath: m_Materials.Array.data[0]
      value: 
      objectReference: {fileID: 2100000, guid: 733d936925aef094092f569382bfc231, type: 2}
    - target: {fileID: 875153445067869318, guid: a6e38f9dfb0a82746a042e3fa54df03a,
        type: 3}
      propertyPath: m_Name
      value: TeclaNaranja
      objectReference: {fileID: 0}
    - target: {fileID: 875153445067869318, guid: a6e38f9dfb0a82746a042e3fa54df03a,
        type: 3}
      propertyPath: m_TagString
      value: Botiquin
      objectReference: {fileID: 0}
    m_RemovedComponents: []
  m_SourcePrefab: {fileID: 100100000, guid: a6e38f9dfb0a82746a042e3fa54df03a, type: 3}
